391505 254218 441
878738 288892 525
576634 360161 470
703145 675232 442
550181 733975 509
606396 428698 470
825092 750601 468
748272 394357 509
431228 374500 449
527218 219709 470
141118 753177 509
726874 434431 509
917251 110836 525
573359 925858 525
838176 967046 507
521637 214028 470
336388 690094 509
686401 789300 504
565297 928583 525
703144 195831 509
162425 507828 449
374909 797070 509
655905 435953 509
682432 875073 525
757256 28528 509
267956 898408 525
6284 760315 509
733709 3138 509
71098 199411 383
639186 383906 509
93403 203803 383
815301 346890 509
994662 424345 525
649413 370746 509
585776 216908 470
36899 905524 525
389602 549460 470
114259 518244 470
338191 570601 470
406915 379540 436
13405 181401 383
904516 297345 525
655770 130109 509
787460 304920 509
564339 831927 509
199182 380408 443
598198 328826 470
322269 419541 449
715085 634864 504
985318 689349 525
123935 417565 449
911086 72284 525
285889 480933 449
302829 472273 449
342170 133164 443
450673 911613 525
46838 583489 470
509519 492563 426
21375 215227 383
883465 700285 525
358364 550158 470
930438 843106 476
127209 459350 449
96950 940749 525
451516 862032 525
734887 540690 509
453393 190726 449
911984 662165 525
713594 8672 509
353359 122988 443
991263 9432 525
48280 461161 449
240132 751173 509
575205 439498 470
794448 227577 509
641353 527459 509
15088 115789 354
540458 680874 509
313906 258524 407
647765 675629 442
400721 534677 470
486835 434165 444
115772 323094 443
703514 700881 411
704308 22528 509
253059 587398 470
788749 501769 509
686155 493758 509
49171 252112 443
335950 336652 366
922382 995563 507
973366 802020 525
706334 537729 509
683323 501705 509
707205 768435 468
713076 508422 509
517762 227098 470
234705 801233 509
700166 800829 504
345411 929011 525
977806 244791 525
215317 684084 509
123352 280108 443
141858 41540 354
393983 497054 449
712198 89513 509
888978 838319 445
605958 1883 470
900143 678543 525
119780 187318 383
487536 798715 509
795702 306776 509
557388 851427 525
89004 71345 351
947169 530385 525
244294 861108 525
884976 559447 525
742409 233972 509
989868 161031 525
20992 967731 525
802670 172957 509
12978 982894 525
304496 346068 441
858586 837324 525
850140 624965 525
442112 858488 525
263946 994594 525
903927 568980 525
623415 927610 525
773331 755675 468
20617 483781 449
299770 236219 407
322380 124142 443
856593 198643 525
716414 882640 525
198675 107847 383
54688 375108 443
298217 689023 509
539581 954304 525
965941 350944 525
205243 460086 449
9156 745632 509
21893 868796 525
573913 682265 509
318546 636873 509
126049 792281 509
452022 830477 509
103458 347764 443
381447 637497 509
504166 266418 449
869440 146350 525
808223 699814 504
428176 298751 449
965189 508288 525
905764 51802 525
199017 736717 509
850262 501390 525
748382 291371 509
832709 354406 509
30438 714109 509
740800 208728 509
787829 538929 509
463588 714302 509
564391 765662 509
825349 77823 509
382451 653615 509
984071 484957 525
797203 286264 509
621474 386405 470
471657 331375 449
641099 515734 509
618761 336108 470
909481 397681 525
953253 292942 525
803526 766754 468
145092 759233 509
45657 461274 449
622289 535168 452
624514 548394 447
456267 628045 509
118965 130087 344
132085 871412 525
910136 154979 525
655285 316350 509
523438 898696 525
732556 124933 509
446770 731707 509
298654 499386 449
133463 239875 443
334685 342954 366
266915 622394 470
660547 24304 509
150892 338677 443
977380 752598 525
150238 565997 470
326133 96081 443
177789 25234 383
732332 641839 504
546780 785817 509
405885 200493 443
80066 98093 333
129849 264394 443
533795 328040 470
965358 836936 525
634564 611894 509
59688 578511 470
541154 367205 470
843555 42775 525
722563 453507 509
495060 635261 509
817164 767826 468
141395 224077 386
686385 763031 504
812935 801596 406
416452 354732 449
832203 15652 509
109923 948591 525
12460 536897 470
416949 740984 509
260895 319432 407
836336 442998 509
525073 245738 470
97022 585610 470
34841 569309 470
488408 835879 509
366240 344255 441
433992 145894 449
445594 733306 509
678328 728393 504
341777 424407 449
857921 893027 445
665696 149709 509
165724 291016 443
737606 685320 504
360162 48451 443
46406 4793 324
506371 249897 449
786499 939407 525
865387 856943 370
186263 349351 443
345791 320392 384
931159 855586 476
76902 282018 443
601555 251690 470
905422 443377 525
277907 937539 525
553109 222544 470
896356 825466 525
387154 647443 509
259394 960422 525
622107 58414 470
422622 934491 525
973681 75585 525
381714 31614 443
257688 650523 509
459876 487906 444
42605 83325 351
636010 179644 509
265684 412342 449
740166 986373 525
868893 619051 525
65026 858282 525
544984 748596 509
985693 104660 525
229659 550730 470
11810 917108 525
295088 765871 509
504208 771873 509
976408 882992 507
336413 188577 443
427037 905837 525
800352 93047 509
926942 605576 525
726591 495178 509
138323 380997 443
328475 899213 525
