2962 4506 238
3380 4762 238
3108 2174 217
4369 493 238
533 2800 209
3798 4100 189
629 3295 217
1281 3182 217
3520 3559 150
3680 1070 217
2227 3705 217
3533 3527 101
4552 3842 215
246 3245 217
4685 2913 238
4819 4329 215
2727 2504 191
2177 4359 238
179 4473 238
3065 990 217
1583 1363 172
4453 3595 238
2960 1838 217
4517 4725 184
4013 3566 238
1848 3263 217
3942 231 238
1603 448 182
685 2613 209
489 4330 238
3670 1296 217
2337 2062 183
2962 3750 238
1927 1625 180
1476 1543 154
4715 3752 215
716 4893 238
4512 2201 238
1630 1778 180
2007 4894 238
1601 1183 177
62 2042 182
3940 2533 238
683 1749 182
4431 418 238
2726 4291 238
2355 3660 217
3176 3139 199
2690 3540 217
1353 3650 217
2915 3668 217
2786 410 209
2235 4251 238
800 1422 182
3135 1804 217
383 4162 238
2849 3470 217
4023 2473 238
2625 2741 191
910 2799 209
4929 4744 210
2606 3019 217
3412 3609 194
754 3837 238
3762 1233 238
3017 4844 238
2381 2430 165
3041 1638 217
1258 1341 177
3759 420 238
4332 889 238
1082 95 179
1875 3751 238
2075 363 182
2151 2846 209
3069 725 217
3864 4237 202
3908 134 238
3580 4406 238
1133 3956 238
3698 901 217
4550 4821 197
949 4764 238
3210 4865 238
1536 1608 167
4183 3447 238
388 2324 183
385 2630 209
4834 4579 197
3454 2699 217
4558 4800 197
4834 4710 197
1346 859 182
943 504 179
1433 570 182
2831 64 209
4544 2346 238
354 2784 209
3716 3080 238
2006 3348 217
3595 2514 217
2702 2000 209
2337 1436 183
4996 2773 238
3207 59 217
228 4271 238
3447 3785 238
4710 1130 238
1904 1608 180
4661 717 238
2119 4466 238
1102 4071 238
792 4607 238
3790 4125 189
2443 403 183
4914 1256 238
59 4740 238
3099 2223 217
4697 2526 238
2985 4806 238
3280 2430 217
3979 4902 215
239 3112 217
1570 3601 217
3222 2391 217
2344 4462 238
3393 2064 217
2319 137 183
1001 2795 209
4393 125 238
1866 1710 180
1095 1996 182
4882 2950 238
4824 776 238
3164 2622 217
4011 4426 215
3489 3302 181
2034 1291 180
3023 4770 238
1001 523 179
4860 4129 215
3115 2075 217
2589 3341 217
2473 3506 217
1890 3661 217
1493 1265 177
3494 4201 238
128 853 171
1902 1569 180
4442 733 238
2141 4695 238
1953 1265 180
258 26 128
2114 1221 180
3552 3795 238
3126 2829 217
2288 737 183
3921 1461 238
4645 4408 184
2163 345 182
680 3908 238
1163 4377 238
4731 4537 184
3836 2134 238
2438 4827 238
3 1122 179
4157 829 238
1361 3127 217
4270 4968 215
2967 4290 238
21 1282 182
4426 749 238
4317 292 238
1314 3506 217
2648 1411 209
2348 1709 183
4695 4550 184
2893 3494 217
1696 429 182
2459 4572 238
1087 4681 238
1550 2048 180
3432 1663 217
4948 302 238
412 2562 209
1710 858 182
827 2325 183
4633 3986 215
632 3022 217
3175 2510 217
1502 1901 180
1576 1546 154
1438 4268 238
1070 2618 209
2691 1055 209
1974 2057 157
4186 4242 202
1431 2353 183
1194 561 182
2220 1994 170
1826 3089 217
4072 856 238
3053 3777 238
1228 1912 180
198 3127 217
2661 43 209
1013 2908 209
1320 1972 180
4756 723 238
3772 4296 202
3064 16 217
4792 194 238
4913 2127 238
4061 1880 238
4563 1878 238
4823 3853 215
3647 186 217
1358 2037 180
2483 4569 238
451 4157 238
3427 1761 217
3234 3288 168
2081 515 182
130 4770 238
4365 596 238
4780 4910 179
3018 3454 199
4350 1394 238
673 2721 209
1847 3353 217
295 126 128
1492 687 182
1217 3931 238
1264 3499 217
3677 2441 217
4709 623 238
4297 4529 215
269 3896 238
3523 2392 217
2290 1832 183
4415 653 238
846 1213 182
839 883 179
2360 2668 209
894 539 179
4640 327 238
4372 59 238
2990 4612 238
2228 2444 183
3459 1045 217
2478 2253 209
1213 4438 238
1605 4133 238
4999 111 238
4000 85 238
3071 3494 199
990 4468 238
3878 1882 238
3681 4063 238
896 337 179
4583 159 238
4223 1520 238
2911 4051 238
3782 491 238
3127 2571 217
2948 2872 217
2776 4946 238
2541 1469 209
402 963 179
2779 3290 217
803 618 171
2888 811 209
1567 854 182
4766 805 238
3122 1701 217
3729 2986 238
4171 3262 238
3398 3198 181
4154 2189 238
2288 1843 183
4084 1026 238
3040 1134 217
2994 1295 217
581 2602 209
4798 3752 215
4707 1547 238
4361 2497 238
1102 571 179
2395 2278 183
343 269 144
1886 1316 180
93 48 116
3136 3670 199
1578 3928 238
4336 4973 215
2989 1519 217
4887 3859 215
1586 4066 238
2895 4299 238
